{
  "iisSettings": {
    "windowsAuthentication": false,
    "anonymousAuthentication": true,
    "iisExpress": {
      "applicationUrl": "http://localhost:52611",
      "sslPort": 44353
    }
  },
  "profiles": {
    "IIS Express": {
      "commandName": "IISExpress",
      "launchBrowser": true,
      "environmentVariables": {
        "ConnectionString": "Server=203.150.107.134,1500; Database=MicroServices_Cutomer;User Id=sa;Password=P@ssword1234;",
        "ASPNETCORE_ENVIRONMENT": "Development"
      }
    },
    "Docker": {
      "commandName": "Docker",
      "launchBrowser": true,
      "launchUrl": "{Scheme}://{ServiceHost}:{ServicePort}",
      "environmentVariables": {
        "AppName": "Microservice Customer",
        "ConnectionString": "Server=203.150.107.134,1500; Database=MicroServices_Cutomer;User Id=sa;Password=P@ssword1234;",
        "CusCode": "PU-0001",
        "ASPNETCORE_ENVIRONMENT": "Production"
      },
      "publishAllPorts": true,
      "useSSL": true
    },
    "Customer": {
      "commandName": "Project",
      "launchBrowser": true,
      "environmentVariables": {
        "ASPNETCORE_ENVIRONMENT": "Development"
      },
      "applicationUrl": "https://localhost:5001;http://localhost:5000"
    }
  }
}